%YAML 1.1
%TAG !u! tag:unity3d.com,2011:
--- !u!128 &12800000
Font:
  m_ObjectHideFlags: 0
  m_CorrespondingSourceObject: {fileID: 0}
  m_PrefabInstance: {fileID: 0}
  m_PrefabAsset: {fileID: 0}
  m_Name: Blue Numbers
  serializedVersion: 5
  m_LineSpacing: 15
  m_DefaultMaterial: {fileID: 2100000, guid: 1ef21c20649896b46937e1a81557da69, type: 2}
  m_FontSize: 1
  m_Texture: {fileID: 0}
  m_AsciiStartOffset: 0
  m_Tracking: 1
  m_CharacterSpacing: 0
  m_CharacterPadding: 1
  m_ConvertCase: 0
  m_CharacterRects:
  - serializedVersion: 2
    index: 33
    uv:
      serializedVersion: 2
      x: 0.4921875
      y: 0.1484375
      width: 0.0234375
      height: 0.0703125
    vert:
      serializedVersion: 2
      x: 0
      y: 20
      width: 3
      height: -9
    advance: 4
    flipped: 0
  - serializedVersion: 2
    index: 34
    uv:
      serializedVersion: 2
      x: 0.3828125
      y: 0.09375
      width: 0.046875
      height: 0.0234375
    vert:
      serializedVersion: 2
      x: 0
      y: 20
      width: 6
      height: -3
    advance: 7
    flipped: 0
  - serializedVersion: 2
    index: 35
    uv:
      serializedVersion: 2
      x: 0.0859375
      y: 0.3359375
      width: 0.0625
      height: 0.0703125
    vert:
      serializedVersion: 2
      x: 0
      y: 20
      width: 8
      height: -9
    advance: 9
    flipped: 0
  - serializedVersion: 2
    index: 36
    uv:
      serializedVersion: 2
      x: 0.3984375
      y: 0.828125
      width: 0.046875
      height: 0.0859375
    vert:
      serializedVersion: 2
      x: 0
      y: 21
      width: 6
      height: -11
    advance: 7
    flipped: 0
  - serializedVersion: 2
    index: 37
    uv:
      serializedVersion: 2
      x: 0.0859375
      y: 0.421875
      width: 0.0703125
      height: 0.0703125
    vert:
      serializedVersion: 2
      x: 0
      y: 20
      width: 9
      height: -9
    advance: 10
    flipped: 0
  - serializedVersion: 2
    index: 38
    uv:
      serializedVersion: 2
      x: 0
      y: 0.0703125
      width: 0.0703125
      height: 0.0703125
    vert:
      serializedVersion: 2
      x: 0
      y: 20
      width: 9
      height: -9
    advance: 10
    flipped: 0
  - serializedVersion: 2
    index: 39
    uv:
      serializedVersion: 2
      x: 0.390625
      y: 0.6875
      width: 0.0234375
      height: 0.0234375
    vert:
      serializedVersion: 2
      x: 0
      y: 20
      width: 3
      height: -3
    advance: 4
    flipped: 0
  - serializedVersion: 2
    index: 40
    uv:
      serializedVersion: 2
      x: 0.453125
      y: 0.640625
      width: 0.03125
      height: 0.0859375
    vert:
      serializedVersion: 2
      x: 0
      y: 20
      width: 4
      height: -11
    advance: 5
    flipped: 0
  - serializedVersion: 2
    index: 41
    uv:
      serializedVersion: 2
      x: 0.453125
      y: 0.4921875
      width: 0.03125
      height: 0.0859375
    vert:
      serializedVersion: 2
      x: 0
      y: 20
      width: 4
      height: -11
    advance: 5
    flipped: 0
  - serializedVersion: 2
    index: 42
    uv:
      serializedVersion: 2
      x: 0.453125
      y: 0.59375
      width: 0.03125
      height: 0.03125
    vert:
      serializedVersion: 2
      x: 0
      y: 20
      width: 4
      height: -4
    advance: 5
    flipped: 0
  - serializedVersion: 2
    index: 43
    uv:
      serializedVersion: 2
      x: 0.1484375
      y: 0.0234375
      width: 0.0546875
      height: 0.0390625
    vert:
      serializedVersion: 2
      x: 0
      y: 18
      width: 7
      height: -5
    advance: 8
    flipped: 0
  - serializedVersion: 2
    index: 44
    uv:
      serializedVersion: 2
      x: 0.484375
      y: 0.046875
      width: 0.0234375
      height: 0.03125
    vert:
      serializedVersion: 2
      x: 0
      y: 13
      width: 3
      height: -4
    advance: 4
    flipped: 0
  - serializedVersion: 2
    index: 45
    uv:
      serializedVersion: 2
      x: 0.4453125
      y: 0.09375
      width: 0.03125
      height: 0.0078125
    vert:
      serializedVersion: 2
      x: 0
      y: 14
      width: 4
      height: -1
    advance: 5
    flipped: 0
  - serializedVersion: 2
    index: 46
    uv:
      serializedVersion: 2
      x: 0.484375
      y: 0.015625
      width: 0.0234375
      height: 0.015625
    vert:
      serializedVersion: 2
      x: 0
      y: 13
      width: 3
      height: -2
    advance: 4
    flipped: 0
  - serializedVersion: 2
    index: 47
    uv:
      serializedVersion: 2
      x: 0.46875
      y: 0.9296875
      width: 0.03125
      height: 0.0703125
    vert:
      serializedVersion: 2
      x: 0
      y: 20
      width: 4
      height: -9
    advance: 5
    flipped: 0
  - serializedVersion: 2
    index: 48
    uv:
      serializedVersion: 2
      x: 0.3125
      y: 0.375
      width: 0.0546875
      height: 0.0703125
    vert:
      serializedVersion: 2
      x: 0
      y: 20
      width: 7
      height: -9
    advance: 8
    flipped: 0
  - serializedVersion: 2
    index: 49
    uv:
      serializedVersion: 2
      x: 0.453125
      y: 0.7421875
      width: 0.03125
      height: 0.0703125
    vert:
      serializedVersion: 2
      x: 0
      y: 20
      width: 4
      height: -9
    advance: 5
    flipped: 0
  - serializedVersion: 2
    index: 50
    uv:
      serializedVersion: 2
      x: 0.3125
      y: 0.203125
      width: 0.0546875
      height: 0.0703125
    vert:
      serializedVersion: 2
      x: 0
      y: 20
      width: 7
      height: -9
    advance: 8
    flipped: 0
  - serializedVersion: 2
    index: 51
    uv:
      serializedVersion: 2
      x: 0.3125
      y: 0.1171875
      width: 0.0546875
      height: 0.0703125
    vert:
      serializedVersion: 2
      x: 0
      y: 20
      width: 7
      height: -9
    advance: 8
    flipped: 0
  - serializedVersion: 2
    index: 52
    uv:
      serializedVersion: 2
      x: 0.3125
      y: 0.03125
      width: 0.0546875
      height: 0.0703125
    vert:
      serializedVersion: 2
      x: 0
      y: 20
      width: 7
      height: -9
    advance: 8
    flipped: 0
  - serializedVersion: 2
    index: 53
    uv:
      serializedVersion: 2
      x: 0.328125
      y: 0.7578125
      width: 0.0546875
      height: 0.0703125
    vert:
      serializedVersion: 2
      x: 0
      y: 20
      width: 7
      height: -9
    advance: 8
    flipped: 0
  - serializedVersion: 2
    index: 54
    uv:
      serializedVersion: 2
      x: 0.3828125
      y: 0.6015625
      width: 0.0546875
      height: 0.0703125
    vert:
      serializedVersion: 2
      x: 0
      y: 20
      width: 7
      height: -9
    advance: 8
    flipped: 0
  - serializedVersion: 2
    index: 55
    uv:
      serializedVersion: 2
      x: 0.328125
      y: 0.84375
      width: 0.0546875
      height: 0.0703125
    vert:
      serializedVersion: 2
      x: 0
      y: 20
      width: 7
      height: -9
    advance: 8
    flipped: 0
  - serializedVersion: 2
    index: 56
    uv:
      serializedVersion: 2
      x: 0.2734375
      y: 0.9296875
      width: 0.0546875
      height: 0.0703125
    vert:
      serializedVersion: 2
      x: 0
      y: 20
      width: 7
      height: -9
    advance: 8
    flipped: 0
  - serializedVersion: 2
    index: 57
    uv:
      serializedVersion: 2
      x: 0.34375
      y: 0.9296875
      width: 0.0546875
      height: 0.0703125
    vert:
      serializedVersion: 2
      x: 0
      y: 20
      width: 7
      height: -9
    advance: 8
    flipped: 0
  - serializedVersion: 2
    index: 58
    uv:
      serializedVersion: 2
      x: 0.4375
      y: 0.0234375
      width: 0.03125
      height: 0.0546875
    vert:
      serializedVersion: 2
      x: 0
      y: 18
      width: 4
      height: -7
    advance: 5
    flipped: 0
  - serializedVersion: 2
    index: 59
    uv:
      serializedVersion: 2
      x: 0.4921875
      y: 0.40625
      width: 0.0234375
      height: 0.0703125
    vert:
      serializedVersion: 2
      x: 0
      y: 18
      width: 3
      height: -9
    advance: 4
    flipped: 0
  - serializedVersion: 2
    index: 60
    uv:
      serializedVersion: 2
      x: 0.3203125
      y: 0.6875
      width: 0.0546875
      height: 0.0546875
    vert:
      serializedVersion: 2
      x: 0
      y: 19
      width: 7
      height: -7
    advance: 8
    flipped: 0
  - serializedVersion: 2
    index: 61
    uv:
      serializedVersion: 2
      x: 0.3828125
      y: 0.40625
      width: 0.0546875
      height: 0.0234375
    vert:
      serializedVersion: 2
      x: 0
      y: 17
      width: 7
      height: -3
    advance: 8
    flipped: 0
  - serializedVersion: 2
    index: 62
    uv:
      serializedVersion: 2
      x: 0.3828125
      y: 0.4453125
      width: 0.0546875
      height: 0.0546875
    vert:
      serializedVersion: 2
      x: 0
      y: 19
      width: 7
      height: -7
    advance: 8
    flipped: 0
  - serializedVersion: 2
    index: 63
    uv:
      serializedVersion: 2
      x: 0.3828125
      y: 0.515625
      width: 0.0546875
      height: 0.0703125
    vert:
      serializedVersion: 2
      x: 0
      y: 20
      width: 7
      height: -9
    advance: 8
    flipped: 0
  - serializedVersion: 2
    index: 64
    uv:
      serializedVersion: 2
      x: 0
      y: 0.8203125
      width: 0.09375
      height: 0.09375
    vert:
      serializedVersion: 2
      x: 0
      y: 20
      width: 12
      height: -12
    advance: 13
    flipped: 0
  - serializedVersion: 2
    index: 65
    uv:
      serializedVersion: 2
      x: 0.109375
      y: 0.7578125
      width: 0.0625
      height: 0.0703125
    vert:
      serializedVersion: 2
      x: 0
      y: 20
      width: 8
      height: -9
    advance: 9
    flipped: 0
  - serializedVersion: 2
    index: 66
    uv:
      serializedVersion: 2
      x: 0.125
      y: 0.9296875
      width: 0.0625
      height: 0.0703125
    vert:
      serializedVersion: 2
      x: 0
      y: 20
      width: 8
      height: -9
    advance: 9
    flipped: 0
  - serializedVersion: 2
    index: 67
    uv:
      serializedVersion: 2
      x: 0.1640625
      y: 0.1640625
      width: 0.0625
      height: 0.0703125
    vert:
      serializedVersion: 2
      x: 0
      y: 20
      width: 8
      height: -9
    advance: 9
    flipped: 0
  - serializedVersion: 2
    index: 68
    uv:
      serializedVersion: 2
      x: 0.171875
      y: 0.671875
      width: 0.0625
      height: 0.0703125
    vert:
      serializedVersion: 2
      x: 0
      y: 20
      width: 8
      height: -9
    advance: 9
    flipped: 0
  - serializedVersion: 2
    index: 69
    uv:
      serializedVersion: 2
      x: 0.3125
      y: 0.53125
      width: 0.0546875
      height: 0.0703125
    vert:
      serializedVersion: 2
      x: 0
      y: 20
      width: 7
      height: -9
    advance: 8
    flipped: 0
  - serializedVersion: 2
    index: 70
    uv:
      serializedVersion: 2
      x: 0.3828125
      y: 0.234375
      width: 0.046875
      height: 0.0703125
    vert:
      serializedVersion: 2
      x: 0
      y: 20
      width: 6
      height: -9
    advance: 7
    flipped: 0
  - serializedVersion: 2
    index: 71
    uv:
      serializedVersion: 2
      x: 0.171875
      y: 0.5859375
      width: 0.0625
      height: 0.0703125
    vert:
      serializedVersion: 2
      x: 0
      y: 20
      width: 8
      height: -9
    advance: 9
    flipped: 0
  - serializedVersion: 2
    index: 72
    uv:
      serializedVersion: 2
      x: 0.1640625
      y: 0.078125
      width: 0.0625
      height: 0.0703125
    vert:
      serializedVersion: 2
      x: 0
      y: 20
      width: 8
      height: -9
    advance: 9
    flipped: 0
  - serializedVersion: 2
    index: 73
    uv:
      serializedVersion: 2
      x: 0.453125
      y: 0.40625
      width: 0.0234375
      height: 0.0703125
    vert:
      serializedVersion: 2
      x: 0
      y: 20
      width: 3
      height: -9
    advance: 4
    flipped: 0
  - serializedVersion: 2
    index: 74
    uv:
      serializedVersion: 2
      x: 0.3125
      y: 0.2890625
      width: 0.0546875
      height: 0.0703125
    vert:
      serializedVersion: 2
      x: 0
      y: 20
      width: 7
      height: -9
    advance: 8
    flipped: 0
  - serializedVersion: 2
    index: 75
    uv:
      serializedVersion: 2
      x: 0.1640625
      y: 0.3359375
      width: 0.0625
      height: 0.0703125
    vert:
      serializedVersion: 2
      x: 0
      y: 20
      width: 8
      height: -9
    advance: 9
    flipped: 0
  - serializedVersion: 2
    index: 76
    uv:
      serializedVersion: 2
      x: 0.2578125
      y: 0.7578125
      width: 0.0546875
      height: 0.0703125
    vert:
      serializedVersion: 2
      x: 0
      y: 20
      width: 7
      height: -9
    advance: 8
    flipped: 0
  - serializedVersion: 2
    index: 77
    uv:
      serializedVersion: 2
      x: 0
      y: 0.6640625
      width: 0.078125
      height: 0.0703125
    vert:
      serializedVersion: 2
      x: 0
      y: 20
      width: 10
      height: -9
    advance: 11
    flipped: 0
  - serializedVersion: 2
    index: 78
    uv:
      serializedVersion: 2
      x: 0.0859375
      y: 0.09375
      width: 0.0625
      height: 0.0703125
    vert:
      serializedVersion: 2
      x: 0
      y: 20
      width: 8
      height: -9
    advance: 9
    flipped: 0
  - serializedVersion: 2
    index: 79
    uv:
      serializedVersion: 2
      x: 0
      y: 0.421875
      width: 0.0703125
      height: 0.0703125
    vert:
      serializedVersion: 2
      x: 0
      y: 20
      width: 9
      height: -9
    advance: 10
    flipped: 0
  - serializedVersion: 2
    index: 80
    uv:
      serializedVersion: 2
      x: 0.0859375
      y: 0.1796875
      width: 0.0625
      height: 0.0703125
    vert:
      serializedVersion: 2
      x: 0
      y: 20
      width: 8
      height: -9
    advance: 9
    flipped: 0
  - serializedVersion: 2
    index: 81
    uv:
      serializedVersion: 2
      x: 0
      y: 0.328125
      width: 0.0703125
      height: 0.078125
    vert:
      serializedVersion: 2
      x: 0
      y: 20
      width: 9
      height: -10
    advance: 10
    flipped: 0
  - serializedVersion: 2
    index: 82
    uv:
      serializedVersion: 2
      x: 0
      y: 0.2421875
      width: 0.0703125
      height: 0.0703125
    vert:
      serializedVersion: 2
      x: 0
      y: 20
      width: 9
      height: -9
    advance: 10
    flipped: 0
  - serializedVersion: 2
    index: 83
    uv:
      serializedVersion: 2
      x: 0.109375
      y: 0.84375
      width: 0.0625
      height: 0.0703125
    vert:
      serializedVersion: 2
      x: 0
      y: 20
      width: 8
      height: -9
    advance: 9
    flipped: 0
  - serializedVersion: 2
    index: 84
    uv:
      serializedVersion: 2
      x: 0.2421875
      y: 0.03125
      width: 0.0546875
      height: 0.0703125
    vert:
      serializedVersion: 2
      x: 0
      y: 20
      width: 7
      height: -9
    advance: 8
    flipped: 0
  - serializedVersion: 2
    index: 85
    uv:
      serializedVersion: 2
      x: 0.09375
      y: 0.578125
      width: 0.0625
      height: 0.0703125
    vert:
      serializedVersion: 2
      x: 0
      y: 20
      width: 8
      height: -9
    advance: 9
    flipped: 0
  - serializedVersion: 2
    index: 86
    uv:
      serializedVersion: 2
      x: 0
      y: 0.5078125
      width: 0.078125
      height: 0.0703125
    vert:
      serializedVersion: 2
      x: 0
      y: 20
      width: 10
      height: -9
    advance: 11
    flipped: 0
  - serializedVersion: 2
    index: 87
    uv:
      serializedVersion: 2
      x: 0
      y: 0.9296875
      width: 0.109375
      height: 0.0703125
    vert:
      serializedVersion: 2
      x: 0
      y: 20
      width: 14
      height: -9
    advance: 15
    flipped: 0
  - serializedVersion: 2
    index: 88
    uv:
      serializedVersion: 2
      x: 0.1640625
      y: 0.25
      width: 0.0625
      height: 0.0703125
    vert:
      serializedVersion: 2
      x: 0
      y: 20
      width: 8
      height: -9
    advance: 9
    flipped: 0
  - serializedVersion: 2
    index: 89
    uv:
      serializedVersion: 2
      x: 0
      y: 0.15625
      width: 0.0703125
      height: 0.0703125
    vert:
      serializedVersion: 2
      x: 0
      y: 20
      width: 9
      height: -9
    advance: 10
    flipped: 0
  - serializedVersion: 2
    index: 90
    uv:
      serializedVersion: 2
      x: 0.2421875
      y: 0.5
      width: 0.0546875
      height: 0.0703125
    vert:
      serializedVersion: 2
      x: 0
      y: 20
      width: 7
      height: -9
    advance: 8
    flipped: 0
  - serializedVersion: 2
    index: 91
    uv:
      serializedVersion: 2
      x: 0.4609375
      y: 0.828125
      width: 0.03125
      height: 0.0859375
    vert:
      serializedVersion: 2
      x: 0
      y: 20
      width: 4
      height: -11
    advance: 5
    flipped: 0
  - serializedVersion: 2
    index: 92
    uv:
      serializedVersion: 2
      x: 0.4453125
      y: 0.21875
      width: 0.03125
      height: 0.0703125
    vert:
      serializedVersion: 2
      x: 0
      y: 20
      width: 4
      height: -9
    advance: 5
    flipped: 0
  - serializedVersion: 2
    index: 93
    uv:
      serializedVersion: 2
      x: 0.4453125
      y: 0.1171875
      width: 0.03125
      height: 0.0859375
    vert:
      serializedVersion: 2
      x: 0
      y: 20
      width: 4
      height: -11
    advance: 5
    flipped: 0
  - serializedVersion: 2
    index: 94
    uv:
      serializedVersion: 2
      x: 0.078125
      y: 0.015625
      width: 0.0546875
      height: 0.0390625
    vert:
      serializedVersion: 2
      x: 0
      y: 20
      width: 7
      height: -5
    advance: 8
    flipped: 0
  - serializedVersion: 2
    index: 95
    uv:
      serializedVersion: 2
      x: 0
      y: 0.046875
      width: 0.0625
      height: 0.0078125
    vert:
      serializedVersion: 2
      x: 0
      y: 10
      width: 8
      height: -1
    advance: 9
    flipped: 0
  - serializedVersion: 2
    index: 96
    uv:
      serializedVersion: 2
      x: 0
      y: 0.015625
      width: 0.03125
      height: 0.015625
    vert:
      serializedVersion: 2
      x: 0
      y: 20
      width: 4
      height: -2
    advance: 5
    flipped: 0
  - serializedVersion: 2
    index: 97
    uv:
      serializedVersion: 2
      x: 0.25
      y: 0.6875
      width: 0.0546875
      height: 0.0546875
    vert:
      serializedVersion: 2
      x: 0
      y: 18
      width: 7
      height: -7
    advance: 8
    flipped: 0
  - serializedVersion: 2
    index: 98
    uv:
      serializedVersion: 2
      x: 0.2421875
      y: 0.1171875
      width: 0.0546875
      height: 0.0703125
    vert:
      serializedVersion: 2
      x: 0
      y: 20
      width: 7
      height: -9
    advance: 8
    flipped: 0
  - serializedVersion: 2
    index: 99
    uv:
      serializedVersion: 2
      x: 0.25
      y: 0.6171875
      width: 0.0546875
      height: 0.0546875
    vert:
      serializedVersion: 2
      x: 0
      y: 18
      width: 7
      height: -7
    advance: 8
    flipped: 0
  - serializedVersion: 2
    index: 100
    uv:
      serializedVersion: 2
      x: 0.2578125
      y: 0.84375
      width: 0.0546875
      height: 0.0703125
    vert:
      serializedVersion: 2
      x: 0
      y: 20
      width: 7
      height: -9
    advance: 8
    flipped: 0
  - serializedVersion: 2
    index: 101
    uv:
      serializedVersion: 2
      x: 0.09375
      y: 0.5078125
      width: 0.0546875
      height: 0.0546875
    vert:
      serializedVersion: 2
      x: 0
      y: 18
      width: 7
      height: -7
    advance: 8
    flipped: 0
  - serializedVersion: 2
    index: 102
    uv:
      serializedVersion: 2
      x: 0.3828125
      y: 0.3203125
      width: 0.046875
      height: 0.0703125
    vert:
      serializedVersion: 2
      x: 0
      y: 20
      width: 6
      height: -9
    advance: 7
    flipped: 0
  - serializedVersion: 2
    index: 103
    uv:
      serializedVersion: 2
      x: 0.171875
      y: 0.5
      width: 0.0546875
      height: 0.0703125
    vert:
      serializedVersion: 2
      x: 0
      y: 18
      width: 7
      height: -9
    advance: 8
    flipped: 0
  - serializedVersion: 2
    index: 104
    uv:
      serializedVersion: 2
      x: 0.203125
      y: 0.9296875
      width: 0.0546875
      height: 0.0703125
    vert:
      serializedVersion: 2
      x: 0
      y: 20
      width: 7
      height: -9
    advance: 8
    flipped: 0
  - serializedVersion: 2
    index: 105
    uv:
      serializedVersion: 2
      x: 0.4921875
      y: 0.234375
      width: 0.0234375
      height: 0.0703125
    vert:
      serializedVersion: 2
      x: 0
      y: 20
      width: 3
      height: -9
    advance: 4
    flipped: 0
  - serializedVersion: 2
    index: 106
    uv:
      serializedVersion: 2
      x: 0.4453125
      y: 0.3046875
      width: 0.03125
      height: 0.0859375
    vert:
      serializedVersion: 2
      x: 0
      y: 20
      width: 4
      height: -11
    advance: 5
    flipped: 0
  - serializedVersion: 2
    index: 107
    uv:
      serializedVersion: 2
      x: 0.1875
      y: 0.84375
      width: 0.0546875
      height: 0.0703125
    vert:
      serializedVersion: 2
      x: 0
      y: 20
      width: 7
      height: -9
    advance: 8
    flipped: 0
  - serializedVersion: 2
    index: 108
    uv:
      serializedVersion: 2
      x: 0.4921875
      y: 0.3203125
      width: 0.0234375
      height: 0.0703125
    vert:
      serializedVersion: 2
      x: 0
      y: 20
      width: 3
      height: -9
    advance: 4
    flipped: 0
  - serializedVersion: 2
    index: 109
    uv:
      serializedVersion: 2
      x: 0
      y: 0.75
      width: 0.0859375
      height: 0.0546875
    vert:
      serializedVersion: 2
      x: 0
      y: 18
      width: 11
      height: -7
    advance: 12
    flipped: 0
  - serializedVersion: 2
    index: 110
    uv:
      serializedVersion: 2
      x: 0.2421875
      y: 0.359375
      width: 0.0546875
      height: 0.0546875
    vert:
      serializedVersion: 2
      x: 0
      y: 18
      width: 7
      height: -7
    advance: 8
    flipped: 0
  - serializedVersion: 2
    index: 111
    uv:
      serializedVersion: 2
      x: 0.171875
      y: 0.4296875
      width: 0.0546875
      height: 0.0546875
    vert:
      serializedVersion: 2
      x: 0
      y: 18
      width: 7
      height: -7
    advance: 8
    flipped: 0
  - serializedVersion: 2
    index: 112
    uv:
      serializedVersion: 2
      x: 0.2421875
      y: 0.2734375
      width: 0.0546875
      height: 0.0703125
    vert:
      serializedVersion: 2
      x: 0
      y: 18
      width: 7
      height: -9
    advance: 8
    flipped: 0
  - serializedVersion: 2
    index: 113
    uv:
      serializedVersion: 2
      x: 0.1875
      y: 0.7578125
      width: 0.0546875
      height: 0.0703125
    vert:
      serializedVersion: 2
      x: 0
      y: 18
      width: 7
      height: -9
    advance: 8
    flipped: 0
  - serializedVersion: 2
    index: 114
    uv:
      serializedVersion: 2
      x: 0.3828125
      y: 0.0234375
      width: 0.0390625
      height: 0.0546875
    vert:
      serializedVersion: 2
      x: 0
      y: 18
      width: 5
      height: -7
    advance: 6
    flipped: 0
  - serializedVersion: 2
    index: 115
    uv:
      serializedVersion: 2
      x: 0.2421875
      y: 0.4296875
      width: 0.0546875
      height: 0.0546875
    vert:
      serializedVersion: 2
      x: 0
      y: 18
      width: 7
      height: -7
    advance: 8
    flipped: 0
  - serializedVersion: 2
    index: 116
    uv:
      serializedVersion: 2
      x: 0.4140625
      y: 0.9296875
      width: 0.0390625
      height: 0.0703125
    vert:
      serializedVersion: 2
      x: 0
      y: 20
      width: 5
      height: -9
    advance: 6
    flipped: 0
  - serializedVersion: 2
    index: 117
    uv:
      serializedVersion: 2
      x: 0.2421875
      y: 0.203125
      width: 0.0546875
      height: 0.0546875
    vert:
      serializedVersion: 2
      x: 0
      y: 18
      width: 7
      height: -7
    advance: 8
    flipped: 0
  - serializedVersion: 2
    index: 118
    uv:
      serializedVersion: 2
      x: 0.0859375
      y: 0.265625
      width: 0.0625
      height: 0.0546875
    vert:
      serializedVersion: 2
      x: 0
      y: 18
      width: 8
      height: -7
    advance: 9
    flipped: 0
  - serializedVersion: 2
    index: 119
    uv:
      serializedVersion: 2
      x: 0
      y: 0.59375
      width: 0.078125
      height: 0.0546875
    vert:
      serializedVersion: 2
      x: 0
      y: 18
      width: 10
      height: -7
    advance: 11
    flipped: 0
  - serializedVersion: 2
    index: 120
    uv:
      serializedVersion: 2
      x: 0.3125
      y: 0.4609375
      width: 0.0546875
      height: 0.0546875
    vert:
      serializedVersion: 2
      x: 0
      y: 18
      width: 7
      height: -7
    advance: 8
    flipped: 0
  - serializedVersion: 2
    index: 121
    uv:
      serializedVersion: 2
      x: 0.09375
      y: 0.6640625
      width: 0.0625
      height: 0.0703125
    vert:
      serializedVersion: 2
      x: 0
      y: 18
      width: 8
      height: -9
    advance: 9
    flipped: 0
  - serializedVersion: 2
    index: 122
    uv:
      serializedVersion: 2
      x: 0.3203125
      y: 0.6171875
      width: 0.046875
      height: 0.0546875
    vert:
      serializedVersion: 2
      x: 0
      y: 18
      width: 6
      height: -7
    advance: 7
    flipped: 0
  - serializedVersion: 2
    index: 123
    uv:
      serializedVersion: 2
      x: 0.3828125
      y: 0.1328125
      width: 0.046875
      height: 0.0859375
    vert:
      serializedVersion: 2
      x: 0
      y: 20
      width: 6
      height: -11
    advance: 7
    flipped: 0
  - serializedVersion: 2
    index: 124
    uv:
      serializedVersion: 2
      x: 0.5
      y: 0.7265625
      width: 0.015625
      height: 0.0859375
    vert:
      serializedVersion: 2
      x: 0
      y: 20
      width: 2
      height: -11
    advance: 3
    flipped: 0
  - serializedVersion: 2
    index: 125
    uv:
      serializedVersion: 2
      x: 0.3984375
      y: 0.7265625
      width: 0.0390625
      height: 0.0859375
    vert:
      serializedVersion: 2
      x: 0
      y: 20
      width: 5
      height: -11
    advance: 6
    flipped: 0
  - serializedVersion: 2
    index: 32
    uv:
      serializedVersion: 2
      x: 0
      y: 1
      width: 0
      height: 0
    vert:
      serializedVersion: 2
      x: 0
      y: 26
      width: 0
      height: 0
    advance: -10
    flipped: 0
  - serializedVersion: 2
    index: 9
    uv:
      serializedVersion: 2
      x: 0
      y: 1
      width: 0
      height: 0
    vert:
      serializedVersion: 2
      x: 0
      y: 26
      width: 0
      height: 0
    advance: -80
    flipped: 0
  m_KerningValues: []
  m_PixelScale: 0.1
  m_FontData: 
  m_Ascent: 0
  m_Descent: 0
  m_DefaultStyle: 0
  m_FontNames: []
  m_FallbackFonts: []
  m_FontRenderingMode: 0
  m_UseLegacyBoundsCalculation: 0
  m_ShouldRoundAdvanceValue: 1
